Project 1: Formula One Exploratory Data Analysis
…
            Project 1: Formula One Exploratory Data Analysis

         October 18, 2020 

In this project I will be using two datasets containing information from Formula One (F1) Racing dating from 1950-2018. The first dataset is called "results" and contains the results of over 1000 race with over 23,000 data points. This data set has variables including every driver, constructor, race, fastestlaptime, points, finishing position, etc.The second dataset is called "qualifying1" and contains data from the qualifying sessions of all of the same races as in the previou dataset. This data includes qualifying position, race, constructor, and driver as well. This data is interesting to me because I love watching F1 on the weekend and I have become much more invested in the sport in recent years. I would love to learn more about it and it seemed like a subject that would have a lot of useable data from over the years. I expect to see an association between doing well in qualifying and doing well in the race itself. I found this data from kaggle.com.

Datasets

library(readr)
qualifying1 <- read_csv("qualifying1.csv")
qualifying1

## # A tibble: 7,516 x 9
##    qualifyId raceId driverId constructorId number position q1     q2     q3    
##        <dbl>  <dbl>    <dbl>         <dbl>  <dbl>    <dbl> <time> <time> <time>
##  1         1     18        1             1     22        1 01:26  01:25  01:26 
##  2         2     18        9             2      4        2 01:26  01:25  01:26 
##  3         3     18        5             1     23        3 01:25  01:25  01:27 
##  4         4     18       13             6      2        4 01:26  01:25  01:27 
##  5         5     18        2             2      3        5 01:26  01:25  01:27 
##  6         6     18       15             7     11        6 01:26  01:26  01:28 
##  7         7     18        3             3      7        7 01:26  01:26  01:28 
##  8         8     18       14             9      9        8 01:26  01:26  01:29 
##  9         9     18       10             7     12        9 01:26  01:26  01:29 
## 10        10     18       20             5     15       10 01:26  01:25     NA 
## # … with 7,506 more rows

library(readr)
results <- read_csv("results.csv")
results

## # A tibble: 23,777 x 18
##    resultId raceId driverId constructorId number  grid position positionText
##       <dbl>  <dbl>    <dbl>         <dbl>  <dbl> <dbl>    <dbl> <chr>       
##  1        1     18        1             1     22     1        1 1           
##  2        2     18        2             2      3     5        2 2           
##  3        3     18        3             3      7     7        3 3           
##  4        4     18        4             4      5    11        4 4           
##  5        5     18        5             1     23     3        5 5           
##  6        6     18        6             3      8    13        6 6           
##  7        7     18        7             5     14    17        7 7           
##  8        8     18        8             6      1    15        8 8           
##  9        9     18        9             2      4     2       NA R           
## 10       10     18       10             7     12    18       NA R           
## # … with 23,767 more rows, and 10 more variables: positionOrder <dbl>,
## #   points <dbl>, laps <dbl>, time <chr>, milliseconds <dbl>, fastestLap <dbl>,
## #   rank <dbl>, fastestLapTime <time>, fastestLapSpeed <dbl>, statusId <dbl>
…
library("tidyverse")
library(tidyr)
library(dplyr)

qualrecent <- qualifying1 %>% filter(raceId >= 841) %>% rename(qposition = position)
resrecent <- results %>% filter(raceId >= 841) %>% rename(fposition = position)

*To clean up the data I removed all data from before 2011 which is a year after F1 changed to the new points system (25 points for 1st along with increased values until 10th place). There was a variable called "position" in each dataset which did not refrence the same thing so I renamed position from the qualifying1 dataset to "qposition" and from the results dataset to "fposition".

Joining

f1big <- full_join(resrecent, qualrecent)
f1big

## # A tibble: 3,013 x 23
##    resultId raceId driverId constructorId number  grid fposition positionText
##       <dbl>  <dbl>    <dbl>         <dbl>  <dbl> <dbl>     <dbl> <chr>       
##  1    20779    841       20             9      1     1         1 1           
##  2    20780    841        1             1      3     2         2 2           
##  3    20781    841      808             4     10     6         3 3           
##  4    20782    841        4             6      5     5         4 4           
##  5    20783    841       17             9      2     3         5 5           
##  6    20784    841       18             1      4     4         6 6           
##  7    20785    841       13             6      6     8         7 7           
##  8    20786    841       67             5     18    10         8 8           
##  9    20787    841       16            10     14    16         9 9           
## 10    20788    841      814            10     15    14        10 10          
## # … with 3,003 more rows, and 15 more variables: positionOrder <dbl>,
## #   points <dbl>, laps <dbl>, time <chr>, milliseconds <dbl>, fastestLap <dbl>,
## #   rank <dbl>, fastestLapTime <time>, fastestLapSpeed <dbl>, statusId <dbl>,
## #   qualifyId <dbl>, qposition <dbl>, q1 <time>, q2 <time>, q3 <time>

I joined my dataset using the full_join function with the common variable of raceId. I discussed which data I dropped in the last section, I don't know that there will be any problems with this because the sport is different today than it was in 1950 so it wouldn't make sense to go that far back in the data.

Data Wrangling and Data Exploration

f1 <- f1big %>% select(resultId, raceId, driverId, constructorId, 
    points, fastestLapSpeed, fposition, qposition, q1, q2, q3)
f1

## # A tibble: 3,013 x 11
##    resultId raceId driverId constructorId points fastestLapSpeed fposition
##       <dbl>  <dbl>    <dbl>         <dbl>  <dbl>           <dbl>     <dbl>
##  1    20779    841       20             9     25            212.         1
##  2    20780    841        1             1     18            211.         2
##  3    20781    841      808             4     15            212.         3
##  4    20782    841        4             6     12            213.         4
##  5    20783    841       17             9     10            213.         5
##  6    20784    841       18             1      8            212.         6
##  7    20785    841       13             6      6            215.         7
##  8    20786    841       67             5      4            210.         8
##  9    20787    841       16            10      2            209.         9
## 10    20788    841      814            10      1            208.        10
## # … with 3,003 more rows, and 4 more variables: qposition <dbl>, q1 <time>,
## #   q2 <time>, q3 <time>

In this section I created a new dataset that I will be using for the next few parts that only includes the variables that are important for what I want to do in this project. 

f1 %>% arrange(desc(fastestLapSpeed)) %>% select(fastestLapSpeed)

## # A tibble: 3,013 x 1
##    fastestLapSpeed
##              <dbl>
##  1            250.
##  2            250.
##  3            249.
##  4            249.
##  5            247.
##  6            245.
##  7            245.
##  8            245.
##  9            244.
## 10            244.
## # … with 3,003 more rows

I used the arrange function to find the fastest lap speed in this dataset which turned out to be 250.174 MPH. 

f1good <- f1[!is.na(f1$points), ]
f1good$scored <- ifelse(f1good$points == 0, "No", "Yes")
scored <- f1good$scored
f1good

## # A tibble: 3,001 x 12
##    resultId raceId driverId constructorId points fastestLapSpeed fposition
##       <dbl>  <dbl>    <dbl>         <dbl>  <dbl>           <dbl>     <dbl>
##  1    20779    841       20             9     25            212.         1
##  2    20780    841        1             1     18            211.         2
##  3    20781    841      808             4     15            212.         3
##  4    20782    841        4             6     12            213.         4
##  5    20783    841       17             9     10            213.         5
##  6    20784    841       18             1      8            212.         6
##  7    20785    841       13             6      6            215.         7
##  8    20786    841       67             5      4            210.         8
##  9    20787    841       16            10      2            209.         9
## 10    20788    841      814            10      1            208.        10
## # … with 2,991 more rows, and 5 more variables: qposition <dbl>, q1 <time>,
## #   q2 <time>, q3 <time>, scored <chr>
…
f1good %>% group_by(scored) %>% summarize(fl = min(fastestLapSpeed, 
    na.rm = T))

## # A tibble: 2 x 2
##   scored    fl
##   <chr>  <dbl>
## 1 No      101.
## 2 Yes     148.

Here, I used the group_by function to compare the lowest lap speed for anyone in this dataset that scored a point which came out to be 147.98 MPH, and the lowest lap speed for any driver that didn't score points which is also just the lowest lap speed, 100.62 MPH. 

f1mut <- f1 %>% mutate(places_gained = qposition - fposition)
f1mut

## # A tibble: 3,013 x 12
##    resultId raceId driverId constructorId points fastestLapSpeed fposition
##       <dbl>  <dbl>    <dbl>         <dbl>  <dbl>           <dbl>     <dbl>
##  1    20779    841       20             9     25            212.         1
##  2    20780    841        1             1     18            211.         2
##  3    20781    841      808             4     15            212.         3
##  4    20782    841        4             6     12            213.         4
##  5    20783    841       17             9     10            213.         5
##  6    20784    841       18             1      8            212.         6
##  7    20785    841       13             6      6            215.         7
##  8    20786    841       67             5      4            210.         8
##  9    20787    841       16            10      2            209.         9
## 10    20788    841      814            10      1            208.        10
## # … with 3,003 more rows, and 5 more variables: qposition <dbl>, q1 <time>,
## #   q2 <time>, q3 <time>, places_gained <dbl>

*Here, I used the mutate function to add a column called places_gained which is just the difference in position for each driver from the start of the race to the end of the race.

f1total <- left_join(f1good, f1mut)
f1total

## # A tibble: 3,001 x 13
##    resultId raceId driverId constructorId points fastestLapSpeed fposition
##       <dbl>  <dbl>    <dbl>         <dbl>  <dbl>           <dbl>     <dbl>
##  1    20779    841       20             9     25            212.         1
##  2    20780    841        1             1     18            211.         2
##  3    20781    841      808             4     15            212.         3
##  4    20782    841        4             6     12            213.         4
##  5    20783    841       17             9     10            213.         5
##  6    20784    841       18             1      8            212.         6
##  7    20785    841       13             6      6            215.         7
##  8    20786    841       67             5      4            210.         8
##  9    20787    841       16            10      2            209.         9
## 10    20788    841      814            10      1            208.        10
## # … with 2,991 more rows, and 6 more variables: qposition <dbl>, q1 <time>,
## #   q2 <time>, q3 <time>, scored <chr>, places_gained <dbl>
…
I used the summary function to get the min, max, median, mean, Q1, and Q3 for each numeric variable in my data.

f1total %>% group_by(raceId) %>% summarize(mean(fastestLapSpeed)) %>% 
    na.omit()

## # A tibble: 66 x 2
##    raceId `mean(fastestLapSpeed)`
##    <fct>                    <dbl>
##  1 842                       193.
##  2 845                       188.
##  3 847                       190.
##  4 848                       187.
##  5 849                       214.
##  6 850                       190.
##  7 851                       183.
##  8 854                       160.
##  9 855                       212.
## 10 856                       197.
## # … with 56 more rows

This shows the average fastest lap speed for each race.

f1total %>% group_by(raceId, constructorId) %>% summarize(fastestLapSpeed)

## # A tibble: 3,001 x 3
## # Groups:   raceId, constructorId [1,501]
##    raceId constructorId fastestLapSpeed
##    <fct>  <fct>                   <dbl>
##  1 841    1                        211.
##  2 841    1                        212.
##  3 841    3                        209.
##  4 841    3                        203.
##  5 841    4                        212.
##  6 841    4                        207.
##  7 841    5                        210.
##  8 841    5                        211.
##  9 841    6                        213.
## 10 841    6                        215.
## # … with 2,991 more rows
…
